ok1
ok2
ok3
For i= 1 Mesh lev has 13 x 13 x 13 nodes
For i= 0 Mesh lev has 7 x 7 x 7 nodes
Problem has 13 x 13 x 13 nodes
ok4
ok5
ok6
ok6a
ok9
ok10
ok11
ok12
ok7a
ok13
ok14
ok15
ok16
ok17
ok18
Input parameters taken from file './tests/serial1'
Initialization complete

Local del2U: 0 gradP: 0 F: 0.539437 (0.00664454)
Local resU: 0.539437 (0.00664454) resP: 0 divU/U: nan (nan)
Global res: 0.539437
initial residual of momentum equation 0.00664454 6591
 *  residual (011)(000) = 6.584e-05 from 6.645e-03 to 6.645e-05 
Loop to reduce pressure residual 7.93676e-05
AhatP (000) with div/v=9.494e-05 for step 0
 *  residual (006)(000) = 5.940e-05 from 1.534e-03 to 6.645e-05 
AhatP (001) with div/v=1.209e-04, dv/v=2.276e-01 & dp/p=1.000e+00 for step 0
 *  residual (009)(000) = 5.763e-05 from 1.483e-03 to 6.645e-05 
AhatP (002) with div/v=1.010e-04, dv/v=9.288e-02 & dp/p=3.512e-01 for step 0
 *  residual (008)(000) = 5.931e-05 from 7.334e-04 to 6.645e-05 
AhatP (003) with div/v=7.022e-05, dv/v=3.026e-02 & dp/p=1.519e-01 for step 0
 *  residual (006)(000) = 5.730e-05 from 4.511e-04 to 6.645e-05 
AhatP (004) with div/v=5.702e-05, dv/v=1.695e-02 & dp/p=1.151e-01 for step 0
 *  residual (007)(000) = 4.792e-05 from 5.990e-04 to 6.645e-05 
AhatP (005) with div/v=6.179e-05, dv/v=2.510e-02 & dp/p=1.299e-01 for step 0
 *  residual (006)(000) = 4.422e-05 from 6.726e-04 to 6.645e-05 
AhatP (006) with div/v=8.362e-05, dv/v=2.858e-02 & dp/p=1.631e-01 for step 0
 *  residual (003)(000) = 4.037e-05 from 8.096e-04 to 6.645e-05 
AhatP (007) with div/v=9.394e-05, dv/v=4.402e-02 & dp/p=1.559e-01 for step 0
 *  residual (008)(000) = 5.720e-05 from 6.859e-04 to 6.645e-05 
AhatP (008) with div/v=7.787e-05, dv/v=2.523e-02 & dp/p=8.550e-02 for step 0
 *  residual (008)(000) = 6.316e-05 from 7.787e-04 to 6.645e-05 
AhatP (009) with div/v=5.252e-05, dv/v=1.392e-02 & dp/p=5.700e-02 for step 0
 *  residual (009)(000) = 4.347e-05 from 8.522e-04 to 6.645e-05 
AhatP (010) with div/v=3.024e-05, dv/v=9.596e-03 & dp/p=4.154e-02 for step 0
 *  residual (007)(000) = 5.606e-05 from 5.141e-04 to 6.645e-05 
AhatP (011) with div/v=1.444e-05, dv/v=4.133e-03 & dp/p=2.619e-02 for step 0
 *  residual (006)(000) = 5.584e-05 from 2.881e-04 to 6.645e-05 
AhatP (012) with div/v=7.473e-06, dv/v=3.287e-03 & dp/p=1.627e-02 for step 0
 *  residual (004)(000) = 5.323e-05 from 1.290e-04 to 6.645e-05 
AhatP (013) with div/v=4.324e-06, dv/v=1.771e-03 & dp/p=9.537e-03 for step 0
after (013) pressure loops for step 0
Local del2U: 0.625385 gradP: 0.353676 F: 0.539437 (0.00664454)
Local resU: 0.0287137 (0.000353682) resP: 0.000147748 divU/U: 2.49621e-06 (4.87512e-06)
Global res: 0.0287141
count = 2.
Local del2U: 0.625385 gradP: 0.353676 F: 0.539437 (0.00664454)
Local resU: 0.0287137 (0.000353682) resP: 0.000147748 divU/U: 2.49621e-06 (4.87512e-06)
Global res: 0.0287141
initial residual of momentum equation 0.00664454 6591
 *  residual (007)(000) = 4.686e-05 from 3.537e-04 to 6.645e-05 
Loop to reduce pressure residual 4.77329e-06
AhatP (000) with div/v=6.559e-06 for step 0
 *  residual (001)(000) = 3.375e-05 from 7.408e-05 to 6.645e-05 
AhatP (001) with div/v=4.719e-06, dv/v=1.007e-03 & dp/p=6.306e-03 for step 0
after (001) pressure loops for step 0
Local del2U: 0.62531 gradP: 0.35415 F: 0.539437 (0.00664454)
Local resU: 0.00155107 (1.91054e-05) resP: 0.000161005 divU/U: 2.72469e-06 (5.32134e-06)
Global res: 0.0015594
count = 3.
